<?xml version="1.0" standalone="no"?>
<!DOCTYPE svg PUBLIC "-//W3C//DTD SVG 20010904//EN"
 "http://www.w3.org/TR/2001/REC-SVG-20010904/DTD/svg10.dtd">
<svg version="1.0" xmlns="http://www.w3.org/2000/svg"
 width="700.000000pt" height="700.000000pt" viewBox="0 0 700.000000 700.000000"
 preserveAspectRatio="xMidYMid meet">
<metadata>
Created by potrace 1.11, written by Peter Selinger 2001-2013
</metadata>
<g transform="translate(0.000000,700.000000) scale(0.100000,-0.100000)"
fill="#000000" stroke="none">
<path d="M4725 6989 c-27 -4 -72 -10 -100 -14 -66 -9 -184 -39 -270 -69 -353
-121 -649 -385 -800 -710 -64 -139 -118 -326 -130 -457 -4 -35 -9 -71 -11 -79
-6 -17 -5 -343 1 -385 2 -16 7 -59 10 -95 4 -36 8 -72 10 -80 3 -8 6 -28 9
-45 2 -16 7 -49 11 -72 4 -24 7 -46 7 -50 0 -5 4 -17 8 -29 5 -11 11 -37 14
-56 3 -19 10 -46 15 -59 5 -13 9 -28 9 -34 3 -34 26 -105 34 -105 5 0 6 9 3
20 -18 56 -2 366 25 486 116 519 524 912 1060 1020 123 25 362 23 495 -4 488
-100 878 -458 1016 -932 48 -163 66 -414 40 -555 -6 -33 -13 -76 -16 -95 -18
-107 -105 -316 -179 -433 -105 -164 -294 -349 -433 -423 -21 -11 -59 -32 -84
-46 -56 -31 -219 -94 -271 -103 -61 -12 -102 -73 -87 -130 6 -20 91 -112 267
-287 303 -303 272 -289 435 -207 466 234 819 610 1020 1085 49 116 108 309
126 410 6 32 13 73 16 89 14 83 20 176 20 330 -1 224 -14 330 -65 528 -120
469 -388 869 -785 1173 -64 49 -163 114 -174 114 -5 0 -11 4 -13 8 -6 15 -240
129 -342 167 -55 20 -150 50 -210 65 -100 26 -145 35 -281 55 -63 10 -345 13
-400 4z"/>
<path d="M3654 6594 c-413 -294 -708 -723 -829 -1204 -13 -52 -26 -113 -30
-135 -4 -22 -8 -51 -11 -65 -23 -137 -30 -426 -13 -545 4 -33 11 -81 14 -107
5 -41 19 -98 55 -238 41 -160 309 -809 547 -1330 124 -271 192 -436 248 -605
20 -61 38 -117 40 -125 2 -8 9 -31 14 -50 15 -49 59 -247 66 -295 3 -22 8 -50
10 -61 19 -90 27 -425 13 -549 -33 -291 -162 -585 -342 -782 -27 -30 -47 -56
-44 -58 2 -2 49 34 105 80 172 144 325 325 452 535 34 56 61 103 61 104 0 2
17 42 39 88 66 142 128 323 147 428 4 25 8 47 9 50 2 7 16 90 20 120 24 154
25 458 1 685 -6 58 -28 181 -48 265 -11 47 -21 94 -24 105 -10 50 -57 185
-104 297 -71 168 -103 237 -282 593 -123 243 -180 365 -205 430 -46 123 -127
383 -157 503 -33 129 -38 151 -51 227 -3 17 -10 53 -15 80 -43 234 -48 560
-11 785 30 181 93 358 193 540 38 70 125 188 182 248 22 23 37 42 34 42 -3 0
-41 -25 -84 -56z"/>
<path d="M4748 5559 c-292 -71 -501 -325 -514 -626 -7 -160 42 -314 139 -443
45 -59 76 -136 77 -187 1 -99 -58 -207 -138 -251 -23 -13 -42 -27 -42 -32 0
-17 205 -21 314 -6 288 40 574 186 797 408 108 108 164 212 193 359 12 63 13
184 3 239 -51 271 -257 485 -524 546 -69 15 -229 12 -305 -7z"/>
<path d="M1226 4063 c-424 -192 -798 -559 -1010 -991 -94 -194 -172 -453 -200
-672 -13 -104 -14 -455 -1 -530 3 -19 11 -62 16 -95 56 -332 197 -655 412
-940 66 -87 293 -316 378 -381 298 -227 672 -384 1024 -430 27 -3 61 -8 75
-10 36 -5 249 -4 290 1 199 27 450 101 628 186 564 269 846 711 842 1319 0 52
-3 115 -5 140 -3 25 -7 68 -10 95 -22 212 -131 610 -229 838 -18 41 -31 51
-16 12 5 -14 8 -25 5 -25 -2 0 0 -14 5 -30 5 -17 12 -61 15 -98 4 -37 9 -78
11 -92 5 -29 5 -313 0 -350 -2 -14 -7 -48 -10 -75 -25 -184 -123 -422 -239
-580 -182 -247 -460 -435 -747 -504 -135 -33 -137 -33 -300 -37 -157 -3 -247
7 -370 41 -30 9 -60 17 -67 18 -7 2 -16 6 -19 10 -4 4 -14 7 -22 7 -8 0 -58
20 -110 45 -359 170 -620 484 -722 868 -11 43 -22 94 -25 115 -3 20 -7 53 -10
72 -6 41 -7 256 -1 285 2 11 7 40 10 65 10 71 14 90 40 175 124 407 416 717
819 869 34 13 64 23 67 24 21 1 98 26 109 35 23 19 40 70 34 101 -4 21 -77
100 -266 287 -142 143 -264 259 -271 260 -6 0 -20 2 -31 4 -11 2 -55 -12 -99
-32z"/>
<path d="M2425 2989 c-22 -4 -60 -10 -85 -14 -72 -11 -248 -74 -339 -121 -238
-124 -430 -298 -506 -460 -49 -104 -66 -180 -67 -296 -2 -360 287 -660 648
-673 400 -15 727 316 701 710 -10 156 -41 242 -135 374 -85 121 -100 219 -47
326 28 57 110 135 143 135 13 0 13 3 4 13 -14 13 -247 18 -317 6z"/>
</g>
</svg>
